<svg width="18" height="18" viewBox="0 0 18 18" fill="none" xmlns="http://www.w3.org/2000/svg">
<path d="M17 17L12.0962 12.0962M12.0962 12.0962C13.2725 10.9199 14 9.29493 14 7.5C14 3.91015 11.0899 1 7.5 1C3.91015 1 1 3.91015 1 7.5C1 11.0899 3.91015 14 7.5 14C9.29493 14 10.9199 13.2725 12.0962 12.0962Z" stroke="#2e384d" stroke-width="1.8" stroke-linecap="round" stroke-linejoin="round"/>
</svg>
